36,99,98,30.00,180.00,172.80,28310;
35,96,99,30.00,180.00,172.80,28347;
35,97,98,30.00,180.00,172.80,28384;
35,96,98,30.00,180.00,172.80,28420;
34,95,97,30.00,180.00,172.80,28456;
35,94,98,30.00,180.00,172.80,28492;
35,94,96,30.00,180.00,172.80,28529;
35,94,95,30.00,180.00,172.80,28565;
34,92,94,30.00,180.00,172.80,28602;
35,91,93,30.00,180.00,172.80,28638;
35,90,92,30.00,180.00,172.80,28675;
34,88,92,30.00,180.00,172.80,28710;
35,87,90,30.00,180.00,172.80,28747;
35,86,88,30.00,180.00,172.80,28784;
35,85,86,30.00,180.00,172.80,28820;
35,83,85,30.00,180.00,172.80,28857;
35,81,83,30.00,180.00,172.80,28893;
35,80,82,30.00,180.00,172.80,28930;
34,79,80,30.00,180.00,172.80,28965;
34,77,78,30.00,180.00,172.80,29002;
35,75,76,30.00,180.00,172.80,29038;
35,73,74,30.00,180.00,172.80,29075;
35,71,73,30.00,180.00,172.80,29111;
35,69,71,30.00,180.00,172.80,29148;
34,68,70,30.00,180.00,172.80,29185;
34,67,67,30.00,180.00,172.80,29220;
35,64,65,30.00,180.00,172.80,29257;
35,63,63,30.00,180.00,172.80,29293;
35,61,61,30.00,180.00,172.80,29330;
35,60,60,30.00,180.00,172.80,29366;
34,58,58,30.00,180.00,172.80,29403;
34,56,57,30.00,180.00,172.80,29438;
34,54,55,30.00,180.00,172.80,29475;
35,53,52,30.00,180.00,172.80,29511;
35,51,51,30.00,180.00,172.80,29548;
35,49,49,30.00,180.00,172.80,29585;
35,47,47,30.00,180.00,172.80,29621;
35,45,45,30.00,175.00,168.00,29658;
34,43,44,30.00,170.00,163.20,29693;
34,41,43,30.00,155.00,148.80,29730;
35,40,40,30.00,125.00,120.00,29766;
34,37,37,30.00,75.01,72.00,29803;
35,36,35,30.00,90.01,86.41,29839;
35,34,34,30.00,75.01,72.01,29876;
35,33,33,30.00,75.01,72.01,29912;
34,33,33,30.00,95.01,91.21,29948;
35,30,28,30.00,-154.99,-148.79,29985;
35,28,26,30.00,-134.99,-129.59,30021;
35,26,26,30.00,-124.99,-119.99,30058;
35,26,26,30.00,-104.99,-100.79,30094;
34,25,26,30.00,-119.99,-115.19,30131;
35,26,26,30.00,-94.99,-91.19,30167;
33,25,26,30.00,-119.99,-115.19,30203;
35,26,26,30.00,-95.00,-91.20,30239;
35,26,26,30.00,-105.00,-100.80,30276;
35,26,26,30.00,-105.00,-100.80,30313;
35,26,26,30.00,-105.00,-100.80,30349;
35,26,26,30.00,-105.00,-100.80,30386;
34,26,27,30.00,-90.00,-86.40,30422;
34,27,26,30.00,-100.00,-96.00,30458;
35,27,26,30.00,-100.00,-96.00,30494;
35,27,27,30.00,-85.00,-81.60,30531;
35,27,27,30.00,-95.00,-91.20,30567;
35,27,27,30.00,-95.00,-91.20,30604;
35,28,27,30.00,-80.00,-76.80,30640;
34,28,28,30.00,-75.00,-72.00,30676;
35,28,27,30.00,-100.00,-96.00,30713;
35,28,28,30.00,-75.00,-72.00,30749;
35,29,28,30.00,-70.00,-67.20,30786;
35,29,28,30.00,-80.00,-76.80,30822;
35,29,29,30.00,-65.00,-62.40,30859;
35,30,29,30.00,70.00,67.20,30895;
34,30,29,30.00,-70.00,-67.20,30931;
35,30,29,30.00,-70.00,-67.20,30967;
35,30,29,30.00,-70.00,-67.20,31004;
35,30,29,30.00,-70.00,-67.20,31040;
35,30,29,30.00,-70.00,-67.20,31077;
35,30,29,30.00,-70.00,-67.20,31113;
35,30,29,30.00,-70.00,-67.20,31150;
34,30,29,30.00,-70.00,-67.20,31186;
35,30,29,30.00,-70.00,-67.20,31222;
35,30,29,30.00,-70.00,-67.20,31259;
35,30,29,30.00,-70.00,-67.20,31295;
35,30,30,30.00,75.00,72.00,31332;
35,30,29,30.00,-80.00,-76.80,31368;
35,30,29,30.00,-70.00,-67.20,31405;
34,30,29,30.00,-70.00,-67.20,31440;
35,30,30,30.00,75.00,72.00,31477;
35,30,30,30.00,-65.00,-62.40,31513;
35,31,30,30.00,80.00,76.80,31550;
35,30,30,30.00,-75.00,-72.00,31587;
35,30,30,30.00,-65.00,-62.40,31623;
34,30,30,30.00,-65.00,-62.40,31660;
34,31,30,30.00,80.00,76.80,31695;
35,31,30,30.00,70.00,67.20,31732;
35,31,30,30.00,70.00,67.20,31768;
35,31,30,30.00,70.00,67.20,31805;
35,30,29,30.00,-90.00,-86.40,31841;
35,30,30,30.00,75.00,72.00,31878;
34,30,30,30.00,-65.00,-62.40,31915;
34,30,30,30.00,-65.00,-62.40,31950;
35,30,30,30.00,-65.00,-62.40,31987;
35,30,30,30.00,-65.00,-62.40,32023;
35,30,30,30.00,-65.00,-62.40,32060;
35,30,30,30.00,-65.00,-62.40,32096;
34,30,30,30.00,-65.00,-62.40,32133;
34,30,30,30.00,-65.00,-62.40,32168;
35,30,30,30.00,-65.00,-62.40,32205;
35,30,29,30.00,-80.00,-76.80,32241;
35,31,30,30.00,90.00,86.40,32278;
35,30,30,30.00,-75.00,-72.00,32315;
35,31,30,30.00,80.00,76.80,32351;
35,31,30,30.00,70.00,67.20,32388;
34,30,30,30.00,-75.00,-72.00,32423;
35,30,30,30.00,-65.00,-62.40,32460;
35,30,30,30.00,-65.00,-62.40,32496;
34,31,30,30.00,80.00,76.80,32533;
35,31,29,30.00,-75.00,-72.00,32569;
35,31,30,30.00,80.00,76.80,32606;
35,31,30,30.00,70.00,67.20,32642;
34,31,30,30.00,70.00,67.20,32678;
35,31,30,30.00,70.00,67.20,32715;
35,31,30,30.00,70.00,67.20,32751;
35,31,30,30.00,70.00,67.20,32788;
35,31,29,30.00,-75.00,-72.00,32824;
35,31,30,30.00,80.00,76.80,32861;
35,31,30,30.00,70.00,67.20,32897;
34,31,30,30.00,70.00,67.20,32933;
35,31,29,30.00,-75.00,-72.00,32969;
35,31,30,30.00,80.00,76.80,33006;
35,31,30,30.00,70.00,67.20,33042;
35,31,30,30.00,70.00,67.20,33079;
35,30,29,30.00,-90.00,-86.40,33116;
34,30,30,30.00,75.00,72.00,33152;
34,31,29,30.00,-65.00,-62.40,33188;
35,31,30,30.00,80.00,76.80,33224;
35,30,30,30.00,-75.00,-72.00,33261;
35,31,30,30.00,80.00,76.80,33297;
35,30,30,30.00,-75.00,-72.00,33334;
35,31,29,30.00,-65.00,-62.40,33370;
34,31,30,30.00,80.00,76.80,33406;
35,31,30,30.00,70.00,67.20,33442;
35,30,30,30.00,-75.00,-72.00,33479;
35,30,30,30.00,-65.00,-62.40,33516;
35,30,30,30.00,-65.00,-62.40,33552;
35,31,30,30.00,80.00,76.80,33589;
35,31,30,30.00,70.00,67.20,33625;
34,31,30,30.00,70.00,67.20,33661;
35,30,30,30.00,-75.00,-72.00,33697;
35,30,30,30.00,65.00,62.40,33734;
35,30,29,30.00,-80.00,-76.80,33770;
35,30,30,30.00,75.00,72.00,33807;
35,30,29,50.00,-80.00,-76.80,33843;
35,30,30,50.00,-180.00,-172.80,33880;
34,31,29,50.00,-180.00,-172.80,33916;
35,31,30,50.00,-180.00,-172.80,33952;
35,32,31,50.00,-180.00,-172.80,33989;
35,33,32,50.00,-180.00,-172.80,34025;
34,33,33,50.00,-180.00,-172.80,34062;
35,33,33,50.00,-180.00,-172.80,34098;
35,33,33,50.00,-180.00,-172.80,34135;
34,34,34,50.00,-180.00,-172.80,34171;
35,35,34,50.00,-180.00,-172.80,34207;
35,36,36,50.00,-175.00,-168.00,34244;
35,37,37,50.00,-175.00,-168.00,34280;
35,38,38,50.00,-165.00,-158.40,34317;
35,40,39,50.00,-140.00,-134.40,34353;
33,41,42,50.00,-110.00,-105.60,34390;
34,43,43,50.00,-105.01,-100.81,34425;
34,45,44,50.00,-90.01,-86.41,34462;
35,45,45,50.00,-105.01,-100.81,34498;
35,47,46,50.00,-70.01,-67.21,34535;
35,48,47,50.00,-70.01,-67.21,34571;
35,49,48,50.00,69.99,67.19,34608;
34,51,49,50.00,94.99,91.19,34644;
35,51,50,50.00,79.99,76.79,34680;
35,52,51,50.00,99.99,95.99,34717;
35,52,51,50.00,79.99,76.79,34753;
35,53,52,50.00,109.99,105.59,34790;
35,54,51,50.00,89.99,86.39,34826;
34,53,52,50.00,89.99,86.39,34863;
34,53,51,50.00,74.99,71.99,34898;
35,53,51,50.00,84.99,81.59,34935;
35,52,51,50.00,69.99,67.19,34971;
35,52,51,50.00,79.99,76.79,35008;
35,52,50,50.00,-65.01,-62.41,35045;
35,51,50,50.00,-70.01,-67.21,35081;
35,51,50,50.00,69.99,67.19,35118;
34,51,50,50.00,69.99,67.19,35153;
35,52,50,50.00,84.99,81.59,35190;
35,51,50,50.00,-70.01,-67.21,35226;
35,51,50,50.00,69.99,67.19,35263;
35,51,50,50.00,69.99,67.19,35299;
35,51,50,50.00,69.99,67.19,35336;
35,51,50,50.00,69.99,67.19,35372;
34,51,49,50.00,-75.01,-72.01,35408;
35,51,50,50.00,79.99,76.79,35445;
35,51,50,50.00,69.99,67.19,35481;
35,51,49,50.00,-75.01,-72.01,35518;
35,51,49,50.00,-65.01,-62.41,35554;
35,51,49,50.00,-65.01,-62.41,35591;
34,51,50,50.00,79.99,76.79,35627;
34,51,50,50.00,69.99,67.19,35663;
35,51,50,50.00,69.99,67.19,35699;
35,52,50,50.00,84.99,81.59,35736;
35,51,50,50.00,-70.01,-67.21,35772;
35,51,50,50.00,69.99,67.19,35809;
35,51,50,50.00,69.99,67.19,35846;
34,51,50,50.00,69.99,67.19,35881;
35,51,49,50.00,-75.01,-72.01,35918;
35,51,49,50.00,-65.01,-62.41,35954;
35,51,49,50.00,-65.01,-62.41,35991;
35,51,50,50.00,79.99,76.79,36027;
35,51,50,50.00,69.99,67.19,36064;
35,51,50,50.00,69.99,67.19,36100;
34,51,50,50.00,69.99,67.19,36136;
35,51,50,50.00,69.99,67.19,36172;
35,51,49,50.00,-75.01,-72.00,36209;
35,51,49,50.00,-65.01,-62.40,36246;
35,51,49,50.00,-65.01,-62.40,36282;
35,51,49,50.00,-65.01,-62.40,36319;
35,51,50,50.00,79.99,76.80,36355;
34,51,50,50.00,69.99,67.20,36391;
35,51,50,50.00,69.99,67.20,36427;
35,51,50,50.00,70.00,67.20,36464;
35,51,49,50.00,-75.00,-72.00,36500;
35,51,50,50.00,80.00,76.80,36537;
35,51,50,50.00,70.00,67.20,36574;
35,51,50,50.00,70.00,67.20,36610;
34,51,50,50.00,70.00,67.20,36646;
35,51,49,50.00,-75.00,-72.00,36682;
35,51,50,50.00,80.00,76.80,36719;
35,51,49,50.00,-75.00,-72.00,36755;
34,51,50,50.00,80.00,76.80,36792;
35,52,49,50.00,70.00,67.20,36828;
35,52,49,50.00,70.00,67.20,36865;
34,52,49,50.00,70.00,67.20,36900;
35,51,50,50.00,70.00,67.20,36937;
35,51,49,50.00,-75.00,-72.00,36974;
35,51,49,50.00,-65.00,-62.40,37010;
35,51,49,50.00,-65.00,-62.40,37047;
35,51,49,50.00,-65.00,-62.40,37083;
34,51,49,50.00,-65.00,-62.40,37120;
34,51,50,50.00,80.00,76.80,37155;
34,51,50,50.00,70.00,67.20,37192;
35,51,50,50.00,70.00,67.20,37228;
35,52,50,50.00,85.00,81.60,37265;
35,51,50,50.00,-70.00,-67.20,37301;
35,51,50,50.00,70.00,67.20,37338;
34,51,50,50.00,70.00,67.20,37374;
35,51,50,50.00,70.00,67.20,37410;
35,51,50,50.00,70.00,67.20,37447;
35,51,50,50.00,70.00,67.20,37483;
35,51,49,50.00,-75.00,-72.00,37520;
35,51,50,50.00,80.00,76.80,37556;
35,51,49,50.00,-75.00,-72.00,37593;
34,51,49,50.00,-65.00,-62.40,37628;
35,51,49,50.00,-65.00,-62.40,37665;
35,51,50,50.00,80.00,76.80,37701;
35,51,50,50.00,70.00,67.20,37738;
35,51,50,50.00,70.00,67.20,37775;
35,51,50,50.00,70.00,67.20,37811;
35,51,50,50.00,70.00,67.20,37848;
34,51,50,50.00,70.00,67.20,37883;
35,51,50,50.00,70.00,67.20,37920;
35,51,50,50.00,70.00,67.20,37956;
35,51,50,50.00,70.00,67.20,37993;
35,51,50,50.00,70.00,67.20,38029;
35,51,50,50.00,70.00,67.20,38066;
34,51,49,50.00,-75.00,-72.00,38102;
34,51,50,50.00,80.00,76.80,38138;
35,51,49,50.00,-75.00,-72.00,38175;
35,51,50,50.00,80.00,76.80,38211;
35,51,49,50.00,-75.00,-72.00,38248;
35,51,49,50.00,-65.00,-62.40,38284;
35,51,49,50.00,-65.00,-62.40,38321;
34,51,50,50.00,80.00,76.80,38356;
34,51,49,50.00,-75.00,-72.00,38393;
35,51,49,50.00,-65.00,-62.40,38429;
35,51,50,50.00,80.00,76.80,38466;
35,51,49,50.00,-75.00,-72.00,38502;
35,51,49,50.00,-65.00,-62.40,38539;
35,51,50,50.00,80.00,76.80,38576;
34,52,50,50.00,85.00,81.60,38611;
35,52,49,50.00,-70.00,-67.20,38648;
35,52,49,50.00,70.00,67.20,38684;
35,51,49,50.00,-75.00,-72.00,38721;
35,51,49,50.00,-65.00,-62.40,38757;
35,51,49,50.00,-65.00,-62.40,38794;
35,52,49,50.00,80.00,76.80,38830;
34,51,49,50.00,-75.00,-72.00,38866;
35,51,49,50.00,-65.00,-62.40,38903;
35,51,49,50.00,-65.00,-62.40,38939;
35,51,49,50.00,-65.00,-62.40,38976;
35,51,49,50.00,-65.00,-62.40,39012;
35,51,49,50.00,-65.00,-62.40,39049;
35,51,49,50.00,-65.00,-62.40,39085;
33,51,49,50.00,-65.00,-62.40,39121;
35,51,49,50.00,-65.00,-62.40,39157;
35,51,49,50.00,-65.00,-62.40,39194;
35,51,50,50.00,80.00,76.80,39230;
35,51,50,50.00,70.00,67.20,39267;
35,51,49,50.00,-75.00,-72.00,39304;
35,51,50,50.00,80.00,76.80,39340;
34,51,50,50.00,70.00,67.20,39376;
35,51,50,50.00,70.00,67.20,39412;
35,51,50,50.00,70.00,67.20,39449;
35,51,50,50.00,70.00,67.20,39485;
34,51,49,50.00,-75.00,-72.00,39522;
35,51,49,50.00,-65.00,-62.40,39558;
34,51,49,50.00,-65.00,-62.40,39595;
34,51,49,50.00,-65.00,-62.40,39630;
35,51,49,50.00,-65.00,-62.40,39667;
35,51,49,50.00,-65.00,-62.40,39704;
35,51,49,50.00,-65.00,-62.40,39740;
